Análisis de sentimientos con R - Léxico Afinn
…
https://raw.githubusercontent.com/jboscomendoza/rpubs/master/sentimientos_afinn/tuits_candidatos.csv

download.file("https://raw.githubusercontent.com/jboscomendoza/rpubs/master/sentimientos_afinn/tuits_candidatos.csv",
              "tuits_candidatos.csv")

Leemos los tuits usando read.csv(). El argumento fileEncoding = "latin1" es importante para mostrar correctamente las vocales con tildes, la ñ y otro caracteres especiales.

tuits <- read.csv("tuits_candidatos.csv", stringsAsFactors = F, fileEncoding = "latin1") %>% 
  tbl_df()

Nuestros datos lucen así:

tuits

## # A tibble: 2,660 x 4
##    status_id created_at       screen_name   text                          
##        <dbl> <chr>            <chr>         <chr>                         
##  1   7.30e17 09/05/2016 03:03 lopezobrador_ Proceso habla de vilezas de E~
##  2   7.30e17 10/05/2016 02:06 lopezobrador_ "MORENA llegó como bendición ~
##  3   7.30e17 10/05/2016 12:00 lopezobrador_ Muchas felicidades a las madr~
##  4   7.31e17 12/05/2016 04:46 lopezobrador_ "En Chihuahua, Javier Félix M~
##  5   7.31e17 13/05/2016 02:54 lopezobrador_ Están desatados priístas, pan~
##  6   7.31e17 13/05/2016 19:13 lopezobrador_ No sé a ustedes, pero a mí lo~
##  7   7.32e17 15/05/2016 03:27 lopezobrador_ Luego de la explosión en Paja~
##  8   7.32e17 16/05/2016 02:20 lopezobrador_ Hoy 15 de mayo nuestro sincer~
##  9   7.32e17 17/05/2016 02:56 lopezobrador_ "El periódico Financial Times~
## 10   7.33e17 18/05/2016 17:57 lopezobrador_ Sandra Ávila Beltrán, conocid~
## # ... with 2,650 more rows
…
https://raw.githubusercontent.com/jboscomendoza/rpubs/master/sentimientos_afinn/lexico_afinn.en.es.csv

download.file("https://raw.githubusercontent.com/jboscomendoza/rpubs/master/sentimientos_afinn/lexico_afinn.en.es.csv",
              "lexico_afinn.en.es.csv")

De nuevo usamos la función read.csv() para importar los datos.

afinn <- read.csv("lexico_afinn.en.es.csv", stringsAsFactors = F, fileEncoding = "latin1") %>% 
  tbl_df()

Este léxico luce así:

afinn

## # A tibble: 2,476 x 3
##    Palabra     Puntuacion Word      
##    <chr>            <int> <chr>     
##  1 a bordo              1 aboard    
##  2 abandona            -2 abandons  
##  3 abandonado          -2 abandoned 
##  4 abandonar           -2 abandon   
##  5 abatido             -2 dejected  
##  6 abatido             -3 despondent
##  7 aborrece            -3 abhors    
##  8 aborrecer           -3 abhor     
##  9 aborrecible         -3 abhorrent 
## 10 aborrecido          -3 abhorred  
## # ... with 2,466 more rows
…
